IPS9 in R: Looking at Data – Distributions (Chapter 1)
…
The cut() function divides the IQ dataset into the defined levels and assigns the values into the appropriate categories. By setting the stat argument in the gf_histogram() function to “count”, we can create a histogram for discrete variables. The distribution of scores on IQ tests is roughly “bell-shaped”.

Table 1.2 (page 17) displays the lengths of the first 80 calls. To call the first 80 observations in the dataset, we can use the head() function and specify the number of observations.

Customer_Calls <-
  read_csv("https://nhorton.people.amherst.edu/ips9/data/chapter01/EG01-16CALLS.csv")
head(Customer_Calls, 80)

## # A tibble: 80 x 1
##    length
##     <dbl>
##  1     77
##  2    289
##  3    128
##  4     59
##  5     19
##  6    148
##  7    157
##  8    203
##  9    126
## 10    118
## # … with 70 more rows
…
